[
  {
    "title": "Info-Abend zum Intensivkurs „Vorbereitung auf die Heilpraktikerprüfung“",
    "dates": [
      {
        "start": "2019-01-15T19:00:00.000Z"
      }
    ],
    "location": "Heilzentrum-Ruffershöfer Eggolsheim",
    "text": "text/INFO-PREP.md"
  },
  {
    "title": "Intensivausbildung zum Heilpraktiker",
    "dates": [
      {
        "start": "2019-02-05",
        "end": "2019-09-29"
      }
    ],
    "extra": [
      "Abendschule",
      "Immer Dienstags (gemäß Terminplanung)",
      "Prüfungsvorbereitung"
    ],
    "location": "Heilzentrum-Ruffershöfer Eggolsheim",
    "text": "text/HEALER.md"
  },
  {
    "title": "Sport- & Regenerationsmassage",
    "tags": [
      "Zertifiziertes Seminar"
    ],
    "dates": [
      {
        "start": "2019-03-16T10:00:00.000Z"
      },
      {
        "start": "2019-03-17T10:00:00.000Z"
      }
    ],
    "location": "Paracelsus Schule in Würzburg",
    "text": "text/SPORT-MASSAGE.md"
  },
  {
    "title": "Integrative Faszientherapie",
    "dates": [
      {
        "start": "2019-06-15T10:00:00.000Z"
      }
    ],
    "location": "Paracelsus Schule in Würzburg",
    "text": "text/FASCIA.md"
  },
  {
    "title": "Triggerpunktbehandlung",
    "dates": [
      {
        "start": "2019-06-16T10:00:00.000Z"
      }
    ],
    "location": "Paracelsus Schule in Würzburg",
    "text": "text/TRIGGER.md"
  }
]